This is BibTeX, Version 0.99d (TeX Live 2013/Debian)
Capacity: max_strings=35307, hash_size=35307, hash_prime=30011
The top-level auxiliary file: paper.aux
The style file: unsrt.bst
Illegal, another \bibstyle command---line 78 of file paper.aux
 : \bibstyle
 :          {IEEEtranS}
I'm skipping whatever remains of this command
Database file #1: refs.bib
Warning--empty journal in bell2013cooperation
You've used 47 entries,
            1791 wiz_defined-function locations,
            713 strings with 13139 characters,
and the built_in function-call counts, 15189 in all, are:
= -- 1509
> -- 564
< -- 32
+ -- 204
- -- 157
* -- 956
:= -- 2122
add.period$ -- 162
call.type$ -- 47
change.case$ -- 47
chr.to.int$ -- 0
cite$ -- 48
duplicate$ -- 757
empty$ -- 1440
format.name$ -- 157
if$ -- 3616
int.to.chr$ -- 0
int.to.str$ -- 47
missing$ -- 47
newline$ -- 238
num.names$ -- 47
pop$ -- 185
preamble$ -- 1
purify$ -- 0
quote$ -- 0
skip$ -- 477
stack$ -- 0
substring$ -- 1222
swap$ -- 326
text.length$ -- 32
text.prefix$ -- 0
top$ -- 0
type$ -- 0
warning$ -- 1
while$ -- 159
width$ -- 49
write$ -- 540
(There was 1 error message)
