\relax 
\bibstyle{unsrt}
\citation{ko2003practical}
\citation{rogge2007novel}
\citation{kleiner2006rfid}
\citation{bell2013cooperation}
\citation{howard2006experiments}
\citation{wang2011frontier}
\citation{choset2001coverage}
\citation{zheng2010multirobot}
\citation{even2004min}
\citation{sipahioglu2010energy}
\citation{yazici2009dynamic}
\citation{mandal2013autonomous}
\citation{batsaikhan2013sensor}
\citation{senthilkumar2012multi}
\citation{couceiro2012multi}
\citation{hoff2013distributed}
\citation{ducatelle2011communication}
\citation{keidar2013efficient}
\citation{de2011using}
\citation{pal2012multi}
\citation{keidar2012fast}
\citation{de2011using}
\@writefile{toc}{\contentsline {section}{\numberline {I}Introduction}{1}}
\@writefile{toc}{\contentsline {subsection}{\numberline {I-A}Coverage and foraging}{1}}
\@writefile{toc}{\contentsline {section}{\numberline {II}Preliminaries and basic definitions}{1}}
\citation{kovacs2011multi}
\citation{ghasemlou2015homecoming}
\citation{spirin2014rendezvous}
\citation{kovacs2011multi}
\citation{ghasemlou2015homecoming}
\citation{rooker2007multi}
\citation{simmons2000coordination}
\citation{burgard2005coordinated}
\citation{vazquez2004distributed}
\citation{low2012decentralized}
\citation{hawley2013hierarchical}
\citation{wawerla2010fast}
\citation{rooker2007multi}
\citation{fazli2013multi}
\citation{fazli2013multi}
\citation{tanoto2012local}
\citation{mei2006deployment}
\citation{mei2006energy}
\citation{mei2006energy}
\citation{stirling2013energy}
\citation{zheng2010multirobot}
\citation{wawerla2010fast}
\citation{keidar2013efficient}
\citation{keidar2012fast}
\citation{arezoumand2013finding}
\citation{de2011using}
\citation{matignon2012coordinated}
\citation{spirin2014rendezvous}
\citation{rogers2013coordination}
\citation{pal2012multi2}
\citation{kovacs2011multi}
\citation{ghasemlou2015homecoming}
\citation{spirin2014time}
\citation{puig2011new}
\citation{wang2011frontier}
\citation{yan2011multi}
\@writefile{toc}{\contentsline {subsection}{\numberline {II-A}Frontier}{2}}
\@writefile{toc}{\contentsline {subsection}{\numberline {II-B}Connectivity Constraints}{2}}
\@writefile{toc}{\contentsline {subsection}{\numberline {II-C}Rendezvous}{2}}
\@writefile{toc}{\contentsline {subsection}{\numberline {II-D}Base Station}{2}}
\@writefile{toc}{\contentsline {section}{\numberline {III}Related Work}{2}}
\@writefile{toc}{\contentsline {subsection}{\numberline {III-A}Centralized VS Decentralized Methods}{2}}
\@writefile{toc}{\contentsline {subsection}{\numberline {III-B}Evaluation}{2}}
\@writefile{toc}{\contentsline {subsection}{\numberline {III-C}Deterministic Approaches}{2}}
\citation{wang2011frontier}
\citation{wang2015unknown}
\citation{valentin2014motion}
\citation{lozenguez2011map}
\citation{pal2012multi}
\citation{li2013task}
\bibstyle{IEEEtranS}
\bibdata{refs}
\bibcite{ko2003practical}{1}
\bibcite{rogge2007novel}{2}
\bibcite{kleiner2006rfid}{3}
\bibcite{bell2013cooperation}{4}
\bibcite{howard2006experiments}{5}
\bibcite{wang2011frontier}{6}
\bibcite{choset2001coverage}{7}
\bibcite{zheng2010multirobot}{8}
\bibcite{even2004min}{9}
\bibcite{sipahioglu2010energy}{10}
\bibcite{yazici2009dynamic}{11}
\bibcite{mandal2013autonomous}{12}
\bibcite{batsaikhan2013sensor}{13}
\bibcite{senthilkumar2012multi}{14}
\bibcite{couceiro2012multi}{15}
\bibcite{hoff2013distributed}{16}
\bibcite{ducatelle2011communication}{17}
\bibcite{keidar2013efficient}{18}
\bibcite{de2011using}{19}
\bibcite{pal2012multi}{20}
\bibcite{keidar2012fast}{21}
\bibcite{kovacs2011multi}{22}
\bibcite{ghasemlou2015homecoming}{23}
\bibcite{spirin2014rendezvous}{24}
\@writefile{toc}{\contentsline {subsection}{\numberline {III-D}Non-deterministic Approaches}{3}}
\@writefile{toc}{\contentsline {section}{References}{3}}
\bibcite{rooker2007multi}{25}
\bibcite{simmons2000coordination}{26}
\bibcite{burgard2005coordinated}{27}
\bibcite{vazquez2004distributed}{28}
\bibcite{low2012decentralized}{29}
\bibcite{hawley2013hierarchical}{30}
\bibcite{wawerla2010fast}{31}
\bibcite{fazli2013multi}{32}
\bibcite{tanoto2012local}{33}
\bibcite{mei2006deployment}{34}
\bibcite{mei2006energy}{35}
\bibcite{stirling2013energy}{36}
\bibcite{arezoumand2013finding}{37}
\bibcite{matignon2012coordinated}{38}
\bibcite{rogers2013coordination}{39}
\bibcite{pal2012multi2}{40}
\bibcite{spirin2014time}{41}
\bibcite{puig2011new}{42}
\bibcite{yan2011multi}{43}
\bibcite{wang2015unknown}{44}
\bibcite{valentin2014motion}{45}
\bibcite{lozenguez2011map}{46}
\bibcite{li2013task}{47}
