\relax 
\bibstyle{unsrt}
\citation{paull2017probabilistic}
\citation{nieto2014coordination}
\citation{chand2013mapping}
\citation{rogers2013coordination}
\citation{jadidi2018gaussian}
\citation{al2012multi}
\citation{simmons2000coordination}
\citation{bailey2011decentralised}
\citation{rogge2007novel}
\citation{li2016semantically}
\citation{liu2016multirobot}
\citation{borderlearning}
\citation{cipolleschi2013semantically}
\citation{kibler2012coordinated}
\citation{choset2001coverage}
\citation{zheng2010multirobot}
\citation{banfi2015communication}
\citation{darmanin2017review}
\citation{amigoni2017multirobot}
\@writefile{toc}{\contentsline {section}{\numberline {I}Introduction}{1}}
\citation{yamauchi1998frontier}
\citation{keidar2013efficient}
\citation{de2011using}
\citation{pal2012multi}
\citation{keidar2012fast}
\citation{de2011using}
\citation{kovacs2011multi}
\citation{ghasemlou2015homecoming}
\citation{bell2013cooperation}
\citation{howard2006experiments}
\citation{wang2011frontier}
\citation{de2010selection}
\citation{de2010selection}
\citation{roy2001collaborative}
\citation{meghjani2011combining}
\citation{meghjani2012multi}
\citation{meghjani2014asymmetric}
\citation{ghasemlou2015homecoming}
\citation{ghasemlou2015homecoming}
\citation{ghasemlou2015homecoming}
\citation{ghasemlou2015homecoming}
\citation{rooker2007multi}
\citation{arezoumand2013finding}
\citation{li2016semantically}
\citation{lauri2016planning}
\citation{keidar2013efficient}
\citation{manjannaadaptive}
\citation{marjovi2013multi}
\citation{rooker2007multi}
\citation{rooker2007multi}
\citation{keidar2013efficient}
\citation{keidar2012fast}
\citation{arezoumand2013finding}
\citation{de2011using}
\citation{li2016semantically}
\citation{lauri2016planning}
\citation{manjannaadaptive}
\citation{manjannaadaptive}
\@writefile{lof}{\contentsline {figure}{\numberline {1}{\ignorespaces Rendezvous points highlighted in green\nobreakspace  {}\cite  {de2010selection}. \relax }}{2}}
\providecommand*\caption@xref[2]{\@setref\relax\@undefined{#1}}
\newlabel{fig:rend}{{1}{2}}
\@writefile{toc}{\contentsline {section}{\numberline {II}Basic Concepts}{2}}
\@writefile{toc}{\contentsline {subsection}{\numberline {II-A}Frontier}{2}}
\@writefile{toc}{\contentsline {subsection}{\numberline {II-B}Connectivity Constraints}{2}}
\@writefile{lof}{\contentsline {figure}{\numberline {2}{\ignorespaces Different local regions used in\nobreakspace  {}\cite  {ghasemlou2015homecoming} to keep the robots connected to the neighbor ones all the time. Image taken from \nobreakspace  {}\cite  {ghasemlou2015homecoming}. \relax }}{2}}
\newlabel{fig:rend}{{2}{2}}
\@writefile{toc}{\contentsline {subsection}{\numberline {II-C}Rendezvous}{2}}
\@writefile{toc}{\contentsline {subsection}{\numberline {II-D}Base Station}{2}}
\@writefile{toc}{\contentsline {section}{\numberline {III}Approaches}{2}}
\@writefile{toc}{\contentsline {subsection}{\numberline {III-A}A methodology based taxonomy on different studies}{2}}
\@writefile{toc}{\contentsline {subsubsection}{\numberline {III-A.1}Frontier Based exploration}{2}}
\citation{marjovi2013multi}
\citation{luperto2017semantic}
\citation{luperto2015constructive}
\citation{corah2017efficient}
\citation{sinay2017maintaining}
\@writefile{lof}{\contentsline {figure}{\numberline {3}{\ignorespaces Frontier is the boundary between the explored an unexplored regions of the maps (image taken from\nobreakspace  {}\cite  {rooker2007multi}). \relax }}{3}}
\newlabel{fig:frontier}{{3}{3}}
\@writefile{toc}{\contentsline {subsubsection}{\numberline {III-A.2}Graph based and topological mapping}{3}}
\citation{kleiner2017solution}
\citation{penumarthi2017multirobot}
\citation{paull2017probabilistic}
\citation{best2018dec}
\citation{banfi2017multirobot}
\citation{Rekleitis2012simultaneous}
\citation{Rekleitis2013multi}
\citation{luperto2015constructive}
\citation{luperto2017semantic}
\citation{penumarthi2017multirobot}
\citation{best2018dec}
\citation{banfi2017multirobot}
\citation{Rekleitis2013multi}
\citation{Rekleitis2012simultaneous}
\citation{goel2013systematic}
\citation{carrillo2018autonomous}
\citation{paull2017probabilistic}
\citation{vazquez2004distributed}
\citation{low2012decentralized}
\citation{hawley2013hierarchical}
\citation{wawerla2010fast}
\citation{rooker2007multi}
\citation{banfi2017strategies}
\citation{nieto2014coordination}
\citation{banfi2016asynchronous}
\@writefile{toc}{\contentsline {subsubsection}{\numberline {III-A.3}Probabilistic and machine learning methods}{4}}
\citation{matignon2012coordinated}
\citation{spirin2014rendezvous}
\citation{rogers2013coordination}
\citation{pal2012multi2}
\citation{kovacs2011multi}
\citation{ghasemlou2015homecoming}
\citation{spirin2014time}
\citation{puig2011new}
\citation{wang2011frontier}
\citation{yan2011multi}
\citation{wang2011frontier}
\citation{wang2015unknown}
\citation{valentin2014motion}
\citation{lozenguez2011map}
\citation{pal2012multi}
\citation{li2013task}
\@writefile{toc}{\contentsline {subsection}{\numberline {III-B}Centralized Vs. Decentralized}{5}}
\citation{fazli2013multi}
\citation{fazli2013multi}
\citation{tanoto2012local}
\citation{mei2006deployment}
\citation{mei2006energy}
\citation{mei2006energy}
\citation{stirling2013energy}
\citation{zheng2010multirobot}
\citation{wawerla2010fast}
\bibstyle{IEEEtranS}
\bibdata{refs}
\bibcite{paull2017probabilistic}{1}
\bibcite{nieto2014coordination}{2}
\bibcite{chand2013mapping}{3}
\bibcite{rogers2013coordination}{4}
\bibcite{jadidi2018gaussian}{5}
\bibcite{al2012multi}{6}
\bibcite{simmons2000coordination}{7}
\bibcite{bailey2011decentralised}{8}
\bibcite{rogge2007novel}{9}
\bibcite{li2016semantically}{10}
\bibcite{liu2016multirobot}{11}
\bibcite{borderlearning}{12}
\bibcite{cipolleschi2013semantically}{13}
\bibcite{kibler2012coordinated}{14}
\bibcite{choset2001coverage}{15}
\bibcite{zheng2010multirobot}{16}
\bibcite{banfi2015communication}{17}
\bibcite{darmanin2017review}{18}
\bibcite{amigoni2017multirobot}{19}
\bibcite{yamauchi1998frontier}{20}
\bibcite{keidar2013efficient}{21}
\bibcite{de2011using}{22}
\bibcite{pal2012multi}{23}
\bibcite{keidar2012fast}{24}
\bibcite{kovacs2011multi}{25}
\bibcite{ghasemlou2015homecoming}{26}
\bibcite{bell2013cooperation}{27}
\bibcite{howard2006experiments}{28}
\bibcite{wang2011frontier}{29}
\bibcite{de2010selection}{30}
\bibcite{roy2001collaborative}{31}
\bibcite{meghjani2011combining}{32}
\bibcite{meghjani2012multi}{33}
\bibcite{meghjani2014asymmetric}{34}
\@writefile{toc}{\contentsline {subsection}{\numberline {III-C}Evaluation}{6}}
\@writefile{toc}{\contentsline {section}{\numberline {IV}Conclusion}{6}}
\@writefile{toc}{\contentsline {section}{References}{6}}
\bibcite{rooker2007multi}{35}
\bibcite{arezoumand2013finding}{36}
\bibcite{lauri2016planning}{37}
\bibcite{manjannaadaptive}{38}
\bibcite{marjovi2013multi}{39}
\bibcite{luperto2017semantic}{40}
\bibcite{luperto2015constructive}{41}
\bibcite{corah2017efficient}{42}
\bibcite{sinay2017maintaining}{43}
\bibcite{kleiner2017solution}{44}
\bibcite{penumarthi2017multirobot}{45}
\bibcite{best2018dec}{46}
\bibcite{banfi2017multirobot}{47}
\bibcite{Rekleitis2012simultaneous}{48}
\bibcite{Rekleitis2013multi}{49}
\bibcite{goel2013systematic}{50}
\bibcite{carrillo2018autonomous}{51}
\bibcite{vazquez2004distributed}{52}
\bibcite{low2012decentralized}{53}
\bibcite{hawley2013hierarchical}{54}
\bibcite{wawerla2010fast}{55}
\bibcite{banfi2017strategies}{56}
\bibcite{banfi2016asynchronous}{57}
\bibcite{matignon2012coordinated}{58}
\bibcite{spirin2014rendezvous}{59}
\bibcite{pal2012multi2}{60}
\bibcite{spirin2014time}{61}
\bibcite{puig2011new}{62}
\bibcite{yan2011multi}{63}
\bibcite{wang2015unknown}{64}
\bibcite{valentin2014motion}{65}
\bibcite{lozenguez2011map}{66}
\bibcite{li2013task}{67}
\bibcite{fazli2013multi}{68}
\bibcite{tanoto2012local}{69}
\bibcite{mei2006deployment}{70}
\bibcite{mei2006energy}{71}
\bibcite{stirling2013energy}{72}
